{
    "success": true,
    "data": {
        "current_page": 1,
        "data": [
            {
                "id": 4825,
                "batch_number": "BATCH-20260328-39DCA6",
                "product": {
                    "id": 5080,
                    "name": "Test-red",
                    "sku": "499814863"
                },
                "store": {
                    "id": 3,
                    "name": "Jamuna Future Park"
                },
                "quantity": 3,
                "cost_price": "5.00",
                "sell_price": "10.00",
                "profit_margin": "100%",
                "total_value": "15.00",
                "sell_value": "30.00",
                "availability": true,
                "status": "low_stock",
                "is_active": true,
                "manufactured_date": null,
                "expiry_date": null,
                "days_until_expiry": null,
                "barcode": {
                    "id": 107166,
                    "barcode": "800735194542",
                    "type": "CODE128"
                },
                "created_at": "2026-03-28 09:01:23"
            },
            {
                "id": 4824,
                "batch_number": "BATCH-20260327-6EC38D",
                "product": {
                    "id": 5080,
                    "name": "Test-red",
                    "sku": "499814863"
                },
                "store": {
                    "id": 3,
                    "name": "Jamuna Future Park"
                },
                "quantity": 0,
                "cost_price": "5.00",
                "sell_price": "10.00",
                "profit_margin": "100%",
                "total_value": "0.00",
                "sell_value": "0.00",
                "availability": true,
                "status": "out_of_stock",
                "is_active": true,
                "manufactured_date": null,
                "expiry_date": null,
                "days_until_expiry": null,
                "barcode": {
                    "id": 107163,
                    "barcode": "974745645192",
                    "type": "CODE128"
                },
                "created_at": "2026-03-27 19:35:41"
            },
            {
                "id": 4823,
                "batch_number": "BATCH-20260327-31ACE6",
                "product": {
                    "id": 5080,
                    "name": "Test-red",
                    "sku": "499814863"
                },
                "store": {
                    "id": 3,
                    "name": "Jamuna Future Park"
                },
                "quantity": 0,
                "cost_price": "5.00",
                "sell_price": "10.00",
                "profit_margin": "100%",
                "total_value": "0.00",
                "sell_value": "0.00",
                "availability": true,
                "status": "out_of_stock",
                "is_active": true,
                "manufactured_date": null,
                "expiry_date": null,
                "days_until_expiry": null,
                "barcode": {
                    "id": 107162,
                    "barcode": "032897745693",
                    "type": "CODE128"
                },
                "created_at": "2026-03-27 17:18:05"
            },
            {
                "id": 4822,
                "batch_number": "PO-20260314-000001-4811-DST-DSP-20260325-826158-DST-DSP-20260325-A76C7A",
                "product": {
                    "id": 5079,
                    "name": "Test-white",
                    "sku": "499814863"
                },
                "store": {
                    "id": 3,
                    "name": "Jamuna Future Park"
                },
                "quantity": 2,
                "cost_price": "10.00",
                "sell_price": "10.00",
                "profit_margin": "0%",
                "total_value": "20.00",
                "sell_value": "20.00",
                "availability": true,
                "status": "low_stock",
                "is_active": true,
                "manufactured_date": null,
                "expiry_date": null,
                "days_until_expiry": null,
                "barcode": {
                    "id": 107152,
                    "barcode": "735487368054",
                    "type": "CODE128"
                },
                "created_at": "2026-03-25 23:53:20"
            },
            {
                "id": 4821,
                "batch_number": "PO-20260314-000001-4811-DST-DSP-20260325-826158",
                "product": {
                    "id": 5079,
                    "name": "Test-white",
                    "sku": "499814863"
                },
                "store": {
                    "id": 2,
                    "name": "Bashundhara"
                },
                "quantity": 5,
                "cost_price": "10.00",
                "sell_price": "10.00",
                "profit_margin": "0%",
                "total_value": "50.00",
                "sell_value": "50.00",
                "availability": true,
                "status": "low_stock",
                "is_active": true,
                "manufactured_date": null,
                "expiry_date": null,
                "days_until_expiry": null,
                "barcode": {
                    "id": 107152,
                    "barcode": "735487368054",
                    "type": "CODE128"
                },
                "created_at": "2026-03-25 23:50:04"
            },
            {
                "id": 4820,
                "batch_number": "PO-20260313-000011-4800-DST-DSP-20260323-F4C4E2",
                "product": {
                    "id": 5073,
                    "name": "Adult Premium Thobe 116 Kufiya-na-m",
                    "sku": "519532179"
                },
                "store": {
                    "id": 2,
                    "name": "Bashundhara"
                },
                "quantity": 1,
                "cost_price": "9,500.00",
                "sell_price": "9,500.00",
                "profit_margin": "0%",
                "total_value": "9,500.00",
                "sell_value": "9,500.00",
                "availability": true,
                "status": "low_stock",
                "is_active": true,
                "manufactured_date": null,
                "expiry_date": null,
                "days_until_expiry": null,
                "barcode": {
                    "id": 106912,
                    "barcode": "334391700843",
                    "type": "CODE128"
                },
                "created_at": "2026-03-23 23:40:14"
            },
            {
                "id": 4819,
                "batch_number": "PO-20260313-000011-4799-DST-DSP-20260323-3DE89D",
                "product": {
                    "id": 5074,
                    "name": "Adult Premium Thobe 116 Kufiya-na-l",
                    "sku": "519532179"
                },
                "store": {
                    "id": 3,
                    "name": "Jamuna Future Park"
                },
                "quantity": 1,
                "cost_price": "9,500.00",
                "sell_price": "9,500.00",
                "profit_margin": "0%",
                "total_value": "9,500.00",
                "sell_value": "9,500.00",
                "availability": true,
                "status": "low_stock",
                "is_active": true,
                "manufactured_date": null,
                "expiry_date": null,
                "days_until_expiry": null,
                "barcode": {
                    "id": 106892,
                    "barcode": "236869046561",
                    "type": "CODE128"
                },
                "created_at": "2026-03-23 23:39:03"
            },
            {
                "id": 4818,
                "batch_number": "PO-20260313-000011-4808-DST-DSP-20260321-9C7FFC",
                "product": {
                    "id": 5065,
                    "name": "Adult Thobe 312 Gold-na-m",
                    "sku": "808953232"
                },
                "store": {
                    "id": 2,
                    "name": "Bashundhara"
                },
                "quantity": 1,
                "cost_price": "11,400.00",
                "sell_price": "11,400.00",
                "profit_margin": "0%",
                "total_value": "11,400.00",
                "sell_value": "11,400.00",
                "availability": true,
                "status": "low_stock",
                "is_active": true,
                "manufactured_date": null,
                "expiry_date": null,
                "days_until_expiry": null,
                "barcode": {
                    "id": 107072,
                    "barcode": "670638011654",
                    "type": "CODE128"
                },
                "created_at": "2026-03-21 03:16:04"
            },
            {
                "id": 4815,
                "batch_number": "PO-20260314-000001-4809",
                "product": {
                    "id": 5077,
                    "name": "Test-black-36",
                    "sku": "499814863"
                },
                "store": {
                    "id": 1,
                    "name": "Main Store (Mirpur)"
                },
                "quantity": 9,
                "cost_price": "10.00",
                "sell_price": "10.00",
                "profit_margin": "0%",
                "total_value": "90.00",
                "sell_value": "90.00",
                "availability": true,
                "status": "low_stock",
                "is_active": true,
                "manufactured_date": null,
                "expiry_date": null,
                "days_until_expiry": null,
                "barcode": {
                    "id": 107132,
                    "barcode": "869147034661",
                    "type": "CODE128"
                },
                "created_at": "2026-03-14 17:39:09"
            },
            {
                "id": 4816,
                "batch_number": "PO-20260314-000001-4810",
                "product": {
                    "id": 5078,
                    "name": "Test-black-37",
                    "sku": "499814863"
                },
                "store": {
                    "id": 1,
                    "name": "Main Store (Mirpur)"
                },
                "quantity": 10,
                "cost_price": "10.00",
                "sell_price": "10.00",
                "profit_margin": "0%",
                "total_value": "100.00",
                "sell_value": "100.00",
                "availability": true,
                "status": "low_stock",
                "is_active": true,
                "manufactured_date": null,
                "expiry_date": null,
                "days_until_expiry": null,
                "barcode": {
                    "id": 107142,
                    "barcode": "698897377913",
                    "type": "CODE128"
                },
                "created_at": "2026-03-14 17:39:09"
            },
            {
                "id": 4817,
                "batch_number": "PO-20260314-000001-4811",
                "product": {
                    "id": 5079,
                    "name": "Test-white",
                    "sku": "499814863"
                },
                "store": {
                    "id": 1,
                    "name": "Main Store (Mirpur)"
                },
                "quantity": 0,
                "cost_price": "10.00",
                "sell_price": "10.00",
                "profit_margin": "0%",
                "total_value": "0.00",
                "sell_value": "0.00",
                "availability": false,
                "status": "unavailable",
                "is_active": true,
                "manufactured_date": null,
                "expiry_date": null,
                "days_until_expiry": null,
                "barcode": {
                    "id": 107152,
                    "barcode": "735487368054",
                    "type": "CODE128"
                },
                "created_at": "2026-03-14 17:39:09"
            },
            {
                "id": 4813,
                "batch_number": "PO-20260313-000010-4797",
                "product": {
                    "id": 5076,
                    "name": "Adult Thobe 310 White-na-l",
                    "sku": "151718211"
                },
                "store": {
                    "id": 1,
                    "name": "Main Store (Mirpur)"
                },
                "quantity": 20,
                "cost_price": "9,500.00",
                "sell_price": "9,500.00",
                "profit_margin": "0%",
                "total_value": "190,000.00",
                "sell_value": "190,000.00",
                "availability": true,
                "status": "available",
                "is_active": true,
                "manufactured_date": null,
                "expiry_date": null,
                "days_until_expiry": null,
                "barcode": {
                    "id": 107092,
                    "barcode": "576592357371",
                    "type": "CODE128"
                },
                "created_at": "2026-03-13 16:49:55"
            },
            {
                "id": 4814,
                "batch_number": "PO-20260313-000010-4798",
                "product": {
                    "id": 5075,
                    "name": "Adult Thobe 310 White-na-m",
                    "sku": "151718211"
                },
                "store": {
                    "id": 1,
                    "name": "Main Store (Mirpur)"
                },
                "quantity": 19,
                "cost_price": "9,500.00",
                "sell_price": "9,500.00",
                "profit_margin": "0%",
                "total_value": "180,500.00",
                "sell_value": "180,500.00",
                "availability": true,
                "status": "available",
                "is_active": true,
                "manufactured_date": null,
                "expiry_date": null,
                "days_until_expiry": null,
                "barcode": {
                    "id": 107112,
                    "barcode": "803788366867",
                    "type": "CODE128"
                },
                "created_at": "2026-03-13 16:49:55"
            },
            {
                "id": 4803,
                "batch_number": "PO-20260313-000011-4799",
                "product": {
                    "id": 5074,
                    "name": "Adult Premium Thobe 116 Kufiya-na-l",
                    "sku": "519532179"
                },
                "store": {
                    "id": 1,
                    "name": "Main Store (Mirpur)"
                },
                "quantity": 12,
                "cost_price": "9,500.00",
                "sell_price": "9,500.00",
                "profit_margin": "0%",
                "total_value": "114,000.00",
                "sell_value": "114,000.00",
                "availability": true,
                "status": "available",
                "is_active": true,
                "manufactured_date": null,
                "expiry_date": null,
                "days_until_expiry": null,
                "barcode": {
                    "id": 106892,
                    "barcode": "236869046561",
                    "type": "CODE128"
                },
                "created_at": "2026-03-13 16:49:36"
            },
            {
                "id": 4804,
                "batch_number": "PO-20260313-000011-4800",
                "product": {
                    "id": 5073,
                    "name": "Adult Premium Thobe 116 Kufiya-na-m",
                    "sku": "519532179"
                },
                "store": {
                    "id": 1,
                    "name": "Main Store (Mirpur)"
                },
                "quantity": 19,
                "cost_price": "9,500.00",
                "sell_price": "9,500.00",
                "profit_margin": "0%",
                "total_value": "180,500.00",
                "sell_value": "180,500.00",
                "availability": true,
                "status": "available",
                "is_active": true,
                "manufactured_date": null,
                "expiry_date": null,
                "days_until_expiry": null,
                "barcode": {
                    "id": 106912,
                    "barcode": "334391700843",
                    "type": "CODE128"
                },
                "created_at": "2026-03-13 16:49:36"
            },
            {
                "id": 4805,
                "batch_number": "PO-20260313-000011-4801",
                "product": {
                    "id": 5072,
                    "name": "Adult Thobe 302 Off White-na-l",
                    "sku": "329886541"
                },
                "store": {
                    "id": 1,
                    "name": "Main Store (Mirpur)"
                },
                "quantity": 18,
                "cost_price": "11,400.00",
                "sell_price": "11,400.00",
                "profit_margin": "0%",
                "total_value": "205,200.00",
                "sell_value": "205,200.00",
                "availability": true,
                "status": "available",
                "is_active": true,
                "manufactured_date": null,
                "expiry_date": null,
                "days_until_expiry": null,
                "barcode": {
                    "id": 106932,
                    "barcode": "972557193376",
                    "type": "CODE128"
                },
                "created_at": "2026-03-13 16:49:36"
            },
            {
                "id": 4806,
                "batch_number": "PO-20260313-000011-4802",
                "product": {
                    "id": 5071,
                    "name": "Adult Thobe 302 Off White-na-m",
                    "sku": "329886541"
                },
                "store": {
                    "id": 1,
                    "name": "Main Store (Mirpur)"
                },
                "quantity": 20,
                "cost_price": "11,400.00",
                "sell_price": "11,400.00",
                "profit_margin": "0%",
                "total_value": "228,000.00",
                "sell_value": "228,000.00",
                "availability": true,
                "status": "available",
                "is_active": true,
                "manufactured_date": null,
                "expiry_date": null,
                "days_until_expiry": null,
                "barcode": {
                    "id": 106952,
                    "barcode": "948066008941",
                    "type": "CODE128"
                },
                "created_at": "2026-03-13 16:49:36"
            },
            {
                "id": 4807,
                "batch_number": "PO-20260313-000011-4803",
                "product": {
                    "id": 5070,
                    "name": "Adult Thobe 313 White-na-l",
                    "sku": "923491221"
                },
                "store": {
                    "id": 1,
                    "name": "Main Store (Mirpur)"
                },
                "quantity": 20,
                "cost_price": "11,400.00",
                "sell_price": "11,400.00",
                "profit_margin": "0%",
                "total_value": "228,000.00",
                "sell_value": "228,000.00",
                "availability": true,
                "status": "available",
                "is_active": true,
                "manufactured_date": null,
                "expiry_date": null,
                "days_until_expiry": null,
                "barcode": {
                    "id": 106972,
                    "barcode": "850521632169",
                    "type": "CODE128"
                },
                "created_at": "2026-03-13 16:49:36"
            },
            {
                "id": 4808,
                "batch_number": "PO-20260313-000011-4804",
                "product": {
                    "id": 5069,
                    "name": "Adult Thobe 313 White-na-m",
                    "sku": "923491221"
                },
                "store": {
                    "id": 1,
                    "name": "Main Store (Mirpur)"
                },
                "quantity": 20,
                "cost_price": "11,400.00",
                "sell_price": "11,400.00",
                "profit_margin": "0%",
                "total_value": "228,000.00",
                "sell_value": "228,000.00",
                "availability": true,
                "status": "available",
                "is_active": true,
                "manufactured_date": null,
                "expiry_date": null,
                "days_until_expiry": null,
                "barcode": {
                    "id": 106992,
                    "barcode": "109341309868",
                    "type": "CODE128"
                },
                "created_at": "2026-03-13 16:49:36"
            },
            {
                "id": 4809,
                "batch_number": "PO-20260313-000011-4805",
                "product": {
                    "id": 5068,
                    "name": "Adult Premium Thobe 225 Navy-na-l",
                    "sku": "100842178"
                },
                "store": {
                    "id": 1,
                    "name": "Main Store (Mirpur)"
                },
                "quantity": 20,
                "cost_price": "9,500.00",
                "sell_price": "9,500.00",
                "profit_margin": "0%",
                "total_value": "190,000.00",
                "sell_value": "190,000.00",
                "availability": true,
                "status": "available",
                "is_active": true,
                "manufactured_date": null,
                "expiry_date": null,
                "days_until_expiry": null,
                "barcode": {
                    "id": 107012,
                    "barcode": "732474443097",
                    "type": "CODE128"
                },
                "created_at": "2026-03-13 16:49:36"
            }
        ],
        "first_page_url": "https:\/\/backend2.errumbd.com\/api\/batches?page=1",
        "from": 1,
        "last_page": 241,
        "last_page_url": "https:\/\/backend2.errumbd.com\/api\/batches?page=241",
        "next_page_url": "https:\/\/backend2.errumbd.com\/api\/batches?page=2",
        "path": "https:\/\/backend2.errumbd.com\/api\/batches",
        "per_page": 20,
        "prev_page_url": null,
        "to": 20,
        "total": 4819
    }
}